<svg width="32" height="32" viewBox="0 0 32 32" fill="none" xmlns="http://www.w3.org/2000/svg">
<path fill-rule="evenodd" clip-rule="evenodd" d="M32 16C32 24.8364 24.8359 32 16 32C7.16406 32 0 24.8364 0 16C0 7.16357 7.16406 0 16 0C24.8359 0 32 7.16357 32 16ZM17.168 16.627H20.0234L20.4004 12.9546H17.168V10.7915C17.168 10.291 17.373 10.0264 17.6191 9.89746C17.7715 9.81738 17.9395 9.78955 18.0859 9.78955H20.4102V6.22119L17.207 6.20801C13.6504 6.20801 12.8418 8.87158 12.8418 10.5728V12.9512H10.7852V16.627H12.8418V27.0864H17.168V16.627Z" fill="#D3CFE6"/>
</svg>
