<svg width="12" height="6" viewBox="0 0 12 6" fill="none" xmlns="http://www.w3.org/2000/svg">
<path fill-rule="evenodd" clip-rule="evenodd" d="M6 4.15297L5.04591 5.12132C3.89159 6.29289 2.02006 6.29289 0.865741 5.12132C-0.28858 3.94975 -0.28858 2.05025 0.865741 0.87868C2.02006 -0.292893 3.89159 -0.292893 5.04591 0.87868L6 1.84703L6.95409 0.87868C8.10841 -0.292893 9.97994 -0.292893 11.1343 0.87868C12.2886 2.05025 12.2886 3.94975 11.1343 5.12132C9.97994 6.29289 8.10841 6.29289 6.95409 5.12132L6 4.15297ZM4.88882 3.02518L4.86401 3L4.88882 2.97482L3.93472 2.00647C3.39409 1.45776 2.51756 1.45776 1.97692 2.00647C1.43629 2.55518 1.43629 3.44482 1.97692 3.99353C2.51756 4.54224 3.39409 4.54224 3.93472 3.99353L4.88882 3.02518ZM7.11118 3.02518L7.13599 3L7.11118 2.97482L8.06528 2.00647C8.60591 1.45776 9.48244 1.45776 10.0231 2.00647C10.5637 2.55518 10.5637 3.44482 10.0231 3.99353C9.48244 4.54224 8.60591 4.54224 8.06528 3.99353L7.11118 3.02518Z" fill="#E73E51"/>
</svg>
